Provincial_view
…
interactive_table(clean_PGDP)

# data.table::fwrite(here("output", str_glue("Table_{tablenumber}_CPI_by_province_product_groups_{params$from_this_year}-{params$to_this_year}")))

provincial PGDP

provincial GDP for master table

pgdp

# A tibble: 302,289 x 21
   ref_date geo   dguid value north_american_~ uom   uom_id scalar_factor
   <chr>    <chr> <chr> <chr> <chr>            <chr> <chr>  <chr>        
 1 1997     Newf~ 2016~ Curr~ All industries ~ Doll~ 81     millions     
 2 1997     Newf~ 2016~ Curr~ Goods-producing~ Doll~ 81     millions     
 3 1997     Newf~ 2016~ Curr~ Service-produci~ Doll~ 81     millions     
 4 1997     Newf~ 2016~ Curr~ Industrial prod~ Doll~ 81     millions     
 5 1997     Newf~ 2016~ Curr~ Non-durable man~ Doll~ 81     millions     
 6 1997     Newf~ 2016~ Curr~ Durable manufac~ Doll~ 81     millions     
 7 1997     Newf~ 2016~ Curr~ Information and~ Doll~ 81     millions     
 8 1997     Newf~ 2016~ Curr~ Information and~ Doll~ 81     millions     
 9 1997     Newf~ 2016~ Curr~ Information and~ Doll~ 81     millions     
10 1997     Newf~ 2016~ Curr~ Energy sector [~ Doll~ 81     millions     
# ... with 302,279 more rows, and 13 more variables: scalar_id <chr>,
#   vector <chr>, coordinate <chr>, value_2 <dbl>, status <chr>, symbol <chr>,
#   terminated <chr>, decimals <chr>, geo_uid <chr>,
#   classification_code_for_value <chr>, hierarchy_for_value <chr>,
#   classification_code_for_north_american_industry_classification_system_naics <chr>,
#   hierarchy_for_north_american_industry_classification_system_naics <chr>
…
